<?xml version="1.0" encoding="UTF-8" standalone="no"?>
<svg
   sodipodi:docname="logo.svg"
   inkscape:version="1.1.1 (3bf5ae0d25, 2021-09-20)"
   id="svg8"
   version="1.1"
   viewBox="0 0 52.916667 26.458333"
   height="100"
   width="200"
   xmlns:inkscape="http://www.inkscape.org/namespaces/inkscape"
   xmlns:sodipodi="http://sodipodi.sourceforge.net/DTD/sodipodi-0.dtd"
   xmlns="http://www.w3.org/2000/svg"
   xmlns:svg="http://www.w3.org/2000/svg"
   xmlns:rdf="http://www.w3.org/1999/02/22-rdf-syntax-ns#"
   xmlns:cc="http://creativecommons.org/ns#"
   xmlns:dc="http://purl.org/dc/elements/1.1/">
  <defs
     id="defs2" />
  <sodipodi:namedview
     width="100px"
     units="px"
     inkscape:window-maximized="1"
     inkscape:window-y="-8"
     inkscape:window-x="-8"
     inkscape:window-height="1017"
     inkscape:window-width="1920"
     inkscape:snap-global="false"
     inkscape:guide-bbox="true"
     showguides="true"
     showgrid="false"
     inkscape:document-rotation="0"
     inkscape:current-layer="layer1"
     inkscape:document-units="mm"
     inkscape:cy="43.949045"
     inkscape:cx="120.12739"
     inkscape:zoom="3.925"
     inkscape:pageshadow="2"
     inkscape:pageopacity="0.0"
     borderopacity="1.0"
     bordercolor="#666666"
     pagecolor="#ffffff"
     id="base"
     inkscape:pagecheckerboard="0">
    <sodipodi:guide
       id="guide833"
       orientation="1,0"
       position="0,356.72025" />
    <sodipodi:guide
       id="guide835"
       orientation="1,0"
       position="99.785712,383.17858" />
    <sodipodi:guide
       id="guide860"
       orientation="1,0"
       position="41.713163,211.68621" />
    <sodipodi:guide
       id="guide862"
       orientation="0,-1"
       position="70.591506,208.28875" />
    <sodipodi:guide
       position="26.559448,32.322983"
       orientation="1,0"
       id="guide845" />
    <sodipodi:guide
       position="33.704883,17.492834"
       orientation="0,-1"
       id="guide847" />
    <sodipodi:guide
       position="-8.4936306,39.805467"
       orientation="0.70710678,-0.70710678"
       id="guide885" />
    <sodipodi:guide
       position="3.6401274,26.053874"
       orientation="1,0"
       id="guide887" />
    <sodipodi:guide
       position="49.343949,16.751327"
       orientation="1,0"
       id="guide889" />
    <sodipodi:guide
       position="34.850849,3.0671443"
       orientation="0,-1"
       id="guide891" />
  </sodipodi:namedview>
  <metadata
     id="metadata5">
    <rdf:RDF>
      <cc:Work
         rdf:about="">
        <dc:format>image/svg+xml</dc:format>
        <dc:type
           rdf:resource="http://purl.org/dc/dcmitype/StillImage" />
      </cc:Work>
    </rdf:RDF>
  </metadata>
  <g
     id="layer1"
     inkscape:groupmode="layer"
     inkscape:label="Layer 1">
    <rect
       style="fill:#e6e6e6;fill-opacity:0.995338;fill-rule:evenodd;stroke:#ffffff;stroke-width:0.255372;stroke-opacity:0.4"
       id="rect861"
       width="45.241581"
       height="23.198586"
       x="3.9049528"
       y="0.062596098" />
    <text
       id="text841"
       y="21.954353"
       x="26.599836"
       style="font-style:normal;font-weight:normal;font-size:4.23333px;line-height:8.11388px;font-family:sans-serif;letter-spacing:0px;word-spacing:0px;fill:#53676c;fill-opacity:1;stroke:none;stroke-width:0.226054"
       xml:space="preserve"><tspan
         style="font-size:4.23333px;text-align:center;text-anchor:middle;fill:#53676c;stroke-width:0.226054"
         y="21.954353"
         x="26.599836"
         sodipodi:role="line"
         id="tspan1833">Open ResearchNotes</tspan></text>
    <text
       id="text866"
       y="8.5036497"
       x="22.258856"
       style="font-size:6.63094px;line-height:5.19927px;font-family:sans-serif;letter-spacing:0px;word-spacing:0px;fill:#666666;stroke:#000000;stroke-width:0.226054"
       xml:space="preserve"><tspan
         style="fill:#666666;stroke:#000000;stroke-width:0.226054"
         y="8.5036497"
         x="22.258856"
         id="tspan864"
         sodipodi:role="line">R</tspan></text>
    <text
       id="text870"
       y="14.27257"
       x="26.671856"
       style="font-size:6.63094px;line-height:5.19927px;font-family:sans-serif;letter-spacing:0px;word-spacing:0px;fill:#53676c;stroke:#000000;stroke-width:0.226054"
       xml:space="preserve"><tspan
         style="fill:#53676c;stroke:#000000;stroke-width:0.226054"
         y="14.27257"
         x="26.671856"
         id="tspan868"
         sodipodi:role="line">N</tspan></text>
    <path
       sodipodi:nodetypes="cc"
       id="path929"
       d="M 20.846611,2.9831554 C 22.08755,1.500762 25.743126,0.92814236 25.743126,0.92814236"
       style="fill:none;stroke:#000000;stroke-width:0.226054px;stroke-linecap:butt;stroke-linejoin:miter;stroke-opacity:1" />
    <path
       id="path937"
       d="m 27.303452,17.232534 c 3.919771,-0.464652 6.955424,-3.650656 7.230193,-7.5882951"
       style="fill:none;fill-opacity:1;stroke:#333333;stroke-width:0.652709;stroke-linejoin:round;stroke-miterlimit:4;stroke-dasharray:none;stroke-dashoffset:0;stroke-opacity:1" />
    <path
       id="path935"
       d="m 18.13901,9.6442398 c 0.286861,4.1102042 3.573193,7.3725762 7.685388,7.6293552"
       style="fill:none;fill-opacity:1;stroke:#0044aa;stroke-width:0.652709;stroke-linejoin:round;stroke-miterlimit:4;stroke-dasharray:none;stroke-dashoffset:0;stroke-opacity:1" />
    <path
       id="path933"
       d="M 34.503178,8.1651696 C 34.081203,4.3678021 31.097624,1.3622531 27.303452,0.91242907"
       style="fill:none;fill-opacity:1;stroke:#0000ff;stroke-width:0.652709;stroke-linejoin:round;stroke-miterlimit:4;stroke-dasharray:none;stroke-dashoffset:0;stroke-opacity:1" />
    <path
       id="path837"
       d="M 25.824398,0.87092314 C 21.839391,1.1196276 18.609855,4.1968194 18.169033,8.1651677"
       style="fill:none;fill-opacity:1;stroke:#ffcc00;stroke-width:0.652709;stroke-linejoin:round;stroke-miterlimit:4;stroke-dasharray:none;stroke-dashoffset:0;stroke-opacity:1" />
  </g>
</svg>
